ShinyDataSHIELD User’s Guide
…
DESeq2

edgeR

We recommend to use the voom + limma pipeline proposed here given its versatility and that limma is much faster than DESeq2 and edgeR. By default, the function consider that data are obtained from a microarray experiment (type.data = "microarray"). Therefore, as we are analyzing RNAseq data, we much indicate that type.data = "RNAse"

ans.gender <- ds.limma(model =  ~ gdc_cases.demographic.gender, 
                       Set = "rse.pre", type.data = "RNAseq")

The top differentially expressed genes can be visualized by:

ans.gender

## $study1
## # A tibble: 40,363 x 7
##    id                     n   beta     SE     t   P.Value adj.P.Val
##    <chr>              <int>  <dbl>  <dbl> <dbl>     <dbl>     <dbl>
##  1 ENSG00000274655.1    424 -12.4  0.0761 -52.1 2.74e-187 1.11e-182
##  2 ENSG00000270641.1    424 -10.2  0.461  -43.8 5.21e-160 1.05e-155
##  3 ENSG00000229807.10   424 -11.0  0.0603 -39.5 1.08e-144 1.45e-140
##  4 ENSG00000277577.1    424 -11.3  0.0651 -36.0 2.27e-131 2.29e-127
##  5 ENSG00000233070.1    424  10.9  0.0885  35.5 1.85e-129 1.49e-125
##  6 ENSG00000260197.1    424  10.2  0.118   32.9 3.72e-119 2.50e-115
##  7 ENSG00000213318.4    424  11.4  0.128   31.9 5.57e-115 3.21e-111
##  8 ENSG00000278039.1    424  -7.78 0.0812 -28.8 3.85e-102 1.94e- 98
##  9 ENSG00000067048.16   424   9.62 0.0894  27.4 4.72e- 96 2.12e- 92
## 10 ENSG00000131002.11   424  11.4  0.0924  27.3 9.63e- 96 3.89e- 92
## # ... with 40,353 more rows
## 
## attr(,"class")
## [1] "dsLimma" "list"
…
So, we can run

ans.gender.sva <- ds.limma(model =  ~ gdc_cases.demographic.gender, 
                       Set = "rse.pre", type.data = "RNAseq",
                       sva = TRUE, annotCols = c("chromosome"))

The results are:

ans.gender.sva

## $study1
## # A tibble: 40,363 x 8
##    id                     n   beta     SE     t   P.Value adj.P.Val chromosome
##    <chr>              <int>  <dbl>  <dbl> <dbl>     <dbl>     <dbl> <chr>     
##  1 ENSG00000274655.1    424 -12.4  0.0761 -52.1 2.74e-187 1.11e-182 chrX      
##  2 ENSG00000270641.1    424 -10.2  0.461  -43.8 5.21e-160 1.05e-155 chrX      
##  3 ENSG00000229807.10   424 -11.0  0.0603 -39.5 1.08e-144 1.45e-140 chrX      
##  4 ENSG00000277577.1    424 -11.3  0.0651 -36.0 2.27e-131 2.29e-127 chrX      
##  5 ENSG00000233070.1    424  10.9  0.0885  35.5 1.85e-129 1.49e-125 chrY      
##  6 ENSG00000260197.1    424  10.2  0.118   32.9 3.72e-119 2.50e-115 chrY      
##  7 ENSG00000213318.4    424  11.4  0.128   31.9 5.57e-115 3.21e-111 chr16     
##  8 ENSG00000278039.1    424  -7.78 0.0812 -28.8 3.85e-102 1.94e- 98 chrX      
##  9 ENSG00000067048.16   424   9.62 0.0894  27.4 4.72e- 96 2.12e- 92 chrY      
## 10 ENSG00000131002.11   424  11.4  0.0924  27.3 9.63e- 96 3.89e- 92 chrY      
## # ... with 40,353 more rows
## 
## attr(,"class")
## [1] "dsLimma" "list"
…
Then, the last step is to meta-analyze the results. Different methods can be used to this end. We have implemented a method that meta-analyze the p-pvalues of each study as follows:

ans.meta <- metaPvalues(ans.limma)
ans.meta

## # A tibble: 481,868 x 4
##    id                study1      study2   p.meta
##    <chr>              <dbl>       <dbl>    <dbl>
##  1 cg13138089 0.00000000190 0.00000763  4.78e-13
##  2 cg25317941 0.0000000179  0.00000196  1.12e-12
##  3 cg02812891 0.00000000731 0.00000707  1.63e-12
##  4 cg12706938 0.00000000425 0.0000161   2.14e-12
##  5 cg16026647 0.000000101   0.000000797 2.51e-12
##  6 cg12695465 0.00000000985 0.0000144   4.33e-12
##  7 cg21171625 0.000000146   0.00000225  9.78e-12
##  8 cg13772815 0.00000000327 0.000122    1.18e-11
##  9 cg00228891 0.000000166   0.00000283  1.38e-11
## 10 cg21488617 0.0000000186  0.0000299   1.62e-11
## # ... with 481,858 more rows
…
Performing this type of analysis using the ds.lmFeature function is not allowed since estimating SVA would require to implement a non-disclosive method that computes SVA from the different servers. This will be a future topic of the dsOmicsClient. NOTE that, estimating SVA separately at each server would not be a good idea since the aim of SVA is to capture differences mainly due to experimental issues among ALL individuals. What we can do instead is to use the ds.limma function to perform the analyses adjusted for SVA at each study.

## 
## Logging into the collaborating servers

## 
## Assigning resource data...

ans.sva <- ds.limma(model = ~ diagnosis + Sex, 
                    Set = "methy",
                    sva = TRUE, annotCols = c("CHR", "UCSC_RefGene_Name"))
ans.sva

## $study1
## # A tibble: 481,868 x 9
##    id          n    beta      SE     t  P.Value adj.P.Val CHR   UCSC_RefGene_Na~
##    <chr>   <int>   <dbl>   <dbl> <dbl>    <dbl>     <dbl> <chr> <chr>           
##  1 cg1313~   100 -0.147  0.0122  -6.62  1.90e-9  0.000466 2     "ECEL1P2"       
##  2 cg2385~   100 -0.0569 0.00520 -6.58  2.32e-9  0.000466 2     "MTA3"          
##  3 cg1377~   100 -0.0820 0.0135  -6.50  3.27e-9  0.000466 17    ""              
##  4 cg1270~   100 -0.0519 0.00872 -6.45  4.25e-9  0.000466 19    "MEX3D"         
##  5 cg2472~   100 -0.0452 0.00775 -6.39  5.47e-9  0.000466 19    "ISOC2;ISOC2;IS~
##  6 cg0281~   100 -0.125  0.0163  -6.33  7.31e-9  0.000466 2     "ECEL1P2"       
##  7 cg2766~   100 -0.0588 0.0198  -6.33  7.48e-9  0.000466 16    "ANKRD11"       
##  8 cg1537~   100 -0.0709 0.0115  -6.32  7.83e-9  0.000466 2     "LPIN1"         
##  9 cg1552~   100 -0.0446 0.00750 -6.29  8.69e-9  0.000466 10    ""              
## 10 cg1269~   100 -0.0497 0.00155 -6.27  9.85e-9  0.000475 6     "GCNT2;GCNT2;GC~
## # ... with 481,858 more rows
## 
## $study2
## # A tibble: 481,868 x 9
##    id         n    beta      SE     t P.Value adj.P.Val CHR   UCSC_RefGene_Name 
##    <chr>  <int>   <dbl>   <dbl> <dbl>   <dbl>     <dbl> <chr> <chr>             
##  1 cg040~    90 -0.101  0.0128  -5.91 6.21e-8    0.0172 11    "CD6"             
##  2 cg076~    90 -0.0431 0.00390 -5.85 8.22e-8    0.0172 6     "MUC21"           
##  3 cg270~    90 -0.0688 0.0147  -5.79 1.07e-7    0.0172 11    "CD6"             
##  4 cg089~    90 -0.0461 0.00791 -5.55 2.98e-7    0.0360 1     ""                
##  5 cg183~    90 -0.0491 0.00848 -5.42 5.07e-7    0.0489 3     "RARRES1;RARRES1" 
##  6 cg021~    90 -0.0199 0.0155  -5.36 6.70e-7    0.0538 8     ""                
##  7 cg160~    90 -0.0531 0.0196  -5.31 7.97e-7    0.0548 17    "MEIS3P1"         
##  8 cg012~    90 -0.0537 0.00971 -5.18 1.39e-6    0.0582 7     "HOXA2"           
##  9 cg251~    90 -0.0224 0.00736 -5.15 1.57e-6    0.0582 3     "ZBTB20;ZBTB20;ZB~
## 10 cg074~    90 -0.0475 0.00166 -5.13 1.67e-6    0.0582 22    "C22orf27"        
## # ... with 481,858 more rows
## 
## attr(,"class")
## [1] "dsLimma" "list"

Then, data can be combined meta-anlyzed as follows:

ans.meta.sv <- metaPvalues(ans.sva)
ans.meta.sv

## # A tibble: 481,868 x 4
##    id                study1      study2   p.meta
##    <chr>              <dbl>       <dbl>    <dbl>
##  1 cg13138089 0.00000000190 0.00000763  4.78e-13
##  2 cg25317941 0.0000000179  0.00000196  1.12e-12
##  3 cg02812891 0.00000000731 0.00000707  1.63e-12
##  4 cg12706938 0.00000000425 0.0000161   2.14e-12
##  5 cg16026647 0.000000101   0.000000797 2.51e-12
##  6 cg12695465 0.00000000985 0.0000144   4.33e-12
##  7 cg21171625 0.000000146   0.00000225  9.78e-12
##  8 cg13772815 0.00000000327 0.000122    1.18e-11
##  9 cg00228891 0.000000166   0.00000283  1.38e-11
## 10 cg21488617 0.0000000186  0.0000299   1.62e-11
## # ... with 481,858 more rows
…
