3 Differential gene expression (DGE) analysis | ShinyDataSHIELD User’s Guide
…
DESeq2

edgeR

We recommend to use the voom + limma pipeline proposed here given its versatility and that limma is much faster than DESeq2 and edgeR. By default, the function consider that data are obtained from a microarray experiment (type.data = "microarray"). Therefore, as we are analyzing RNAseq data, we much indicate that type.data = "RNAse"

ans.gender <- ds.limma(model =  ~ gdc_cases.demographic.gender, 
                       Set = "rse.pre", type.data = "RNAseq")

The top differentially expressed genes can be visualized by:

ans.gender

## $study1
## # A tibble: 40,363 x 7
##    id                     n   beta     SE     t   P.Value adj.P.Val
##    <chr>              <int>  <dbl>  <dbl> <dbl>     <dbl>     <dbl>
##  1 ENSG00000274655.1    424 -12.4  0.0761 -52.1 2.74e-187 1.11e-182
##  2 ENSG00000270641.1    424 -10.2  0.461  -43.8 5.21e-160 1.05e-155
##  3 ENSG00000229807.10   424 -11.0  0.0603 -39.5 1.08e-144 1.45e-140
##  4 ENSG00000277577.1    424 -11.3  0.0651 -36.0 2.27e-131 2.29e-127
##  5 ENSG00000233070.1    424  10.9  0.0885  35.5 1.85e-129 1.49e-125
##  6 ENSG00000260197.1    424  10.2  0.118   32.9 3.72e-119 2.50e-115
##  7 ENSG00000213318.4    424  11.4  0.128   31.9 5.57e-115 3.21e-111
##  8 ENSG00000278039.1    424  -7.78 0.0812 -28.8 3.85e-102 1.94e- 98
##  9 ENSG00000067048.16   424   9.62 0.0894  27.4 4.72e- 96 2.12e- 92
## 10 ENSG00000131002.11   424  11.4  0.0924  27.3 9.63e- 96 3.89e- 92
## # ... with 40,353 more rows
## 
## attr(,"class")
## [1] "dsLimma" "list"
…
So, we can run

ans.gender.sva <- ds.limma(model =  ~ gdc_cases.demographic.gender, 
                       Set = "rse.pre", type.data = "RNAseq",
                       sva = TRUE, annotCols = c("chromosome"))

The results are:

ans.gender.sva

## $study1
## # A tibble: 40,363 x 8
##    id                     n   beta     SE     t   P.Value adj.P.Val chromosome
##    <chr>              <int>  <dbl>  <dbl> <dbl>     <dbl>     <dbl> <chr>     
##  1 ENSG00000274655.1    424 -12.4  0.0761 -52.1 2.74e-187 1.11e-182 chrX      
##  2 ENSG00000270641.1    424 -10.2  0.461  -43.8 5.21e-160 1.05e-155 chrX      
##  3 ENSG00000229807.10   424 -11.0  0.0603 -39.5 1.08e-144 1.45e-140 chrX      
##  4 ENSG00000277577.1    424 -11.3  0.0651 -36.0 2.27e-131 2.29e-127 chrX      
##  5 ENSG00000233070.1    424  10.9  0.0885  35.5 1.85e-129 1.49e-125 chrY      
##  6 ENSG00000260197.1    424  10.2  0.118   32.9 3.72e-119 2.50e-115 chrY      
##  7 ENSG00000213318.4    424  11.4  0.128   31.9 5.57e-115 3.21e-111 chr16     
##  8 ENSG00000278039.1    424  -7.78 0.0812 -28.8 3.85e-102 1.94e- 98 chrX      
##  9 ENSG00000067048.16   424   9.62 0.0894  27.4 4.72e- 96 2.12e- 92 chrY      
## 10 ENSG00000131002.11   424  11.4  0.0924  27.3 9.63e- 96 3.89e- 92 chrY      
## # ... with 40,353 more rows
## 
## attr(,"class")
## [1] "dsLimma" "list"
…
