4 Exploration of Genotype data | Privacy protected federated omic data analysis in multi-center studies with DataSHIELD
…
4.6 Basic statistics of the genotype data

We have also developed functions to compute statistics of the genotype data, the statistics implemented on dsOmicsClient are:

Allele frequencies. Brief definition (by Nature)[https://www.nature.com/scitable/definition/allele-frequency-298/#:~:text=An%20allele%20frequency%20is%20calculated,a%20percentage%2C%20or%20a%20fraction.].

Hardy-Weinberg Equilibrium testing. Information on the test can be found (here)[https://www.sciencedirect.com/science/article/pii/S0002929707607356https://www.sciencedirect.com/science/article/pii/S0002929707607356].

To get the allele frequencies we have two different methods, to obtain the pooled frequencies or to obtain them by study server:

# Pooled allele frequencies
ds.alleleFrequency(paste0('gds.Data', 1:21))

# A tibble: 762,900 x 3
   rs              n pooled_MAF
   <chr>       <dbl>      <dbl>
 1 rs575272151  2435     0.0863
 2 rs75454623   2428     0.482 
 3 rs2691315    2429     0.409 
 4 rs75478250   2432     0.355 
 5 rs940550     2429     0.297 
 6 rs144169752  2431     0.120 
 7 rs368130516  2429     0.0593
 8 rs202206030  2433     0.0724
 9 rs2853819    2428     0.202 
10 rs202025951  2429     0.184 
# ... with 762,890 more rows

# By-study allele frquencies
ds.alleleFrequency(paste0('gds.Data', 1:21), type = "split")

$cohort1
# A tibble: 853,933 x 3
   rs              n    MAF
 * <chr>       <dbl>  <dbl>
 1 rs575272151   813 0.0795
 2 rs75454623    812 0.476 
 3 rs2691315     812 0.432 
 4 rs2691277     813 0.0861
 5 rs114420996   812 0.131 
 6 rs62637817    812 0.0686
 7 rs75478250    815 0.348 
 8 rs940550      812 0.314 
 9 rs377100675   814 0.259 
10 rs62642131    812 0.137 
# ... with 853,923 more rows

$cohort2
# A tibble: 855,153 x 3
   rs              n    MAF
 * <chr>       <dbl>  <dbl>
 1 rs575272151  1069 0.0965
 2 rs75454623   1064 0.491 
 3 rs2691315    1065 0.433 
 4 rs2691277    1066 0.0982
 5 rs114420996  1064 0.120 
 6 rs62637817   1064 0.0543
 7 rs75478250   1064 0.364 
 8 rs940550     1065 0.336 
 9 rs377100675  1066 0.273 
10 rs62642131   1063 0.129 
# ... with 855,143 more rows

$cohort3
# A tibble: 778,123 x 3
   rs              n    MAF
 * <chr>       <dbl>  <dbl>
 1 rs575272151   553 0.0753
 2 rs75454623    552 0.477 
 3 rs2691315     552 0.331 
 4 rs75478250    553 0.349 
 5 rs940550      552 0.199 
 6 rs144169752   553 0.132 
 7 rs368130516   553 0.0628
 8 rs202206030   553 0.0558
 9 rs2853819     553 0.236 
10 rs202025951   554 0.117 
# ... with 778,113 more rows

attr(,"class")
[1] "dsalleleFrequency" "list"             

To do the Hardy-Weinberg Equilibrium testing is not implemented to get the pooled results as the allele frequency, we can only get the results from each server independently.

do.call(rbind, lapply(1:21, function(x){
  as_tibble(ds.exactHWE(paste0('gds.Data', x)))
}))

# A tibble: 865,292 x 3
   cohort1$rs  $chr      $pval cohort2$rs  $chr      $pval cohort3$rs  $chr 
   <chr>       <chr>     <dbl> <chr>       <chr>     <dbl> <chr>       <chr>
 1 rs575272151 1     8.10e-  1 rs575272151 1     2.89e-  1 rs575272151 1    
 2 rs75454623  1     5.90e-115 rs75454623  1     1.22e-160 rs75454623  1    
 3 rs2691315   1     8.30e-  1 rs2691315   1     3.82e-  1 rs2691315   1    
 4 rs2691277   1     4.02e-  2 rs2691277   1     2.67e-  3 rs2691277   1    
 5 rs114420996 1     8.78e-  1 rs114420996 1     1.00e+  0 rs114420996 1    
 6 rs62637817  1     2.85e-  5 rs62637817  1     2.94e-  2 rs62637817  1    
 7 rs75478250  1     4.45e-  2 rs75478250  1     4.27e-  1 rs75478250  1    
 8 rs940550    1     4.36e-  4 rs940550    1     2.32e-  2 rs940550    1    
 9 rs377100675 1     5.79e- 43 rs377100675 1     3.34e- 57 rs377100675 1    
10 rs62642131  1     4.16e-  5 rs62642131  1     2.01e-  9 rs62642131  1    
# ... with 865,282 more rows
…
