5 Genome wide association study (GWAS) analysis | Privacy protected federated omic data analysis in multi-center studies with DataSHIELD
…
For this use case we will use the following formula.

diabetes_diagnosed_doctor ~ sex + hdl_cholesterol

5.1.5 Performing the GWAS

We are finally ready to achieve our ultimate goal, performing a GWAS analysis. We have our data (genotype + phenotypes) organized into the correspondent objects (GenotypeData) and our association formula ready. The function ds.metaGWAS is in charge of doing the analysis, we have to supply it with the names of the GenotypeData objects of the remote R session and the formula. Since we have 21 different objects, the paste0 function is used to simplify the call.

results_single <- ds.metaGWAS(genoData = paste0("gds.Data", 1:21), 
                              model = diabetes_diagnosed_doctor ~ sex + hdl_cholesterol)[[1]]

results_single

# A tibble: 865,240 x 10
   rs      chr       pos p.value n.obs  freq    Est Est.SE ref_allele alt_allele
 * <chr>   <chr>   <int>   <dbl> <dbl> <dbl>  <dbl>  <dbl> <chr>      <chr>     
 1 rs4648~ 1      2.89e6 7.42e-6  1292 0.512 -0.323 0.0721 C          T         
 2 rs4659~ 1      1.20e8 8.74e-6  1296 0.587  0.321 0.0723 T          C         
 3 rs1274~ 1      2.90e6 9.69e-6  1294 0.548 -0.321 0.0725 C          T         
 4 rs3137~ 1      8.62e7 1.08e-5  1293 0.277 -0.375 0.0852 C          T         
 5 rs1132~ 1      1.17e8 1.08e-5  1292 0.859 -0.459 0.104  T          C         
 6 rs1736~ 1      2.82e7 2.26e-5  1293 0.864 -0.466 0.110  C          T         
 7 rs2920~ 1      2.30e7 2.64e-5  1293 0.343  0.327 0.0779 G          A         
 8 rs7411~ 1      1.47e8 3.16e-5  1294 0.932  0.608 0.146  A          G         
 9 rs5800~ 1      5.30e7 3.69e-5  1293 0.929  0.590 0.143  C          A         
10 rs7290~ 1      5.30e7 4.18e-5  1294 0.929  0.586 0.143  G          A         
# ... with 865,230 more rows
…
results <- ds.metaGWAS(genoData = paste0("gds.Data", 1:21), 
                       model = diabetes_diagnosed_doctor ~ sex + hdl_cholesterol)

And we can see the results for each cohort.

Cohort 1

Cohort 2

Cohort 3

⠀

# A tibble: 865,162 x 10
   rs      chr      pos  p.value n.obs  freq    Est Est.SE ref_allele alt_allele
 * <chr>   <chr>  <int>    <dbl> <dbl> <dbl>  <dbl>  <dbl> <chr>      <chr>     
 1 rs5795~ 1     3.90e7  8.49e-7   430 0.736  0.709 0.144  T          C         
 2 rs1132~ 1     1.17e8  1.64e-9   428 0.874 -1.12  0.186  T          C         
 3 rs4970~ 1     3.90e7  1.30e-6   350 0.747  0.817 0.169  A          G         
 4 rs9726~ 1     2.81e7  1.15e-5   430 0.787  0.766 0.175  C          T         
 5 rs2906~ 1     4.43e7  5.31e-9   428 0.559 -0.554 0.0949 A          G         
 6 rs1211~ 1     1.87e8  2.15e-5   428 0.391 -0.603 0.142  T          A         
 7 rs1626~ 1     2.06e8  1.38e-8   428 0.216 -0.849 0.150  C          A         
 8 rs1090~ 1     2.81e7  1.64e-8   430 0.798  0.682 0.121  G          A         
 9 rs1938~ 1     1.87e8  1.61e-9   429 0.597  0.576 0.0955 A          T         
10 rs1572~ 1     1.99e7  5.38e-3   428 0.206 -0.539 0.194  T          C         
# ... with 865,152 more rows

⠀

# A tibble: 865,190 x 10
   rs      chr      pos  p.value n.obs  freq    Est Est.SE ref_allele alt_allele
 * <chr>   <chr>  <int>    <dbl> <dbl> <dbl>  <dbl>  <dbl> <chr>      <chr>     
 1 rs9426~ 1     2.98e7  2.52e-7   549 0.757 -0.751  0.146 C          T         
 2 rs1240~ 1     8.57e7  6.22e-5   549 0.929  0.940  0.235 A          G         
 3 rs2762~ 1     1.45e8  8.91e-5   550 0.519  1.21   0.309 T          C         
 4 rs1116~ 1     8.58e7  1.36e-3   549 0.783  0.468  0.146 T          C         
 5 rs4657~ 1     1.67e8  1.02e-3   552 0.342 -0.373  0.114 G          T         
 6 rs2295~ 1     1.60e8  7.14e-4   549 0.896  0.669  0.198 C          A         
 7 rs1891~ 1     1.16e8  6.15e-5   550 0.724  0.550  0.137 T          C         
 8 rs7768~ 1     2.21e8  2.96e-4   551 0.929 -0.853  0.236 C          G         
 9 rs1209~ 1     3.13e7  6.69e-4   551 0.826 -0.523  0.154 C          T         
10 rs6670~ 1     1.16e8  2.28e-4   552 0.722  0.496  0.135 T          C         
# ... with 865,180 more rows

⠀

# A tibble: 849,560 x 10
   rs    chr      pos  p.value n.obs  freq    Est   Est.SE ref_allele alt_allele
 * <chr> <chr>  <int>    <dbl> <dbl> <dbl>  <dbl>    <dbl> <chr>      <chr>     
 1 rs49~ 1     6.22e7 2.80e- 5   285 0.632 -0.877  0.209   G          A         
 2 rs75~ 1     6.22e7 0.         285 0.547 -0.630 -0.00451 T          C         
 3 rs13~ 1     1.02e8 2.34e- 3   286 0.938  0.780  0.256   A          G         
 4 rs12~ 1     1.72e8 1.90e- 2   285 0.898  0.622  0.265   T          G         
 5 rs75~ 1     1.02e8 8.25e-14   285 0.866  1.40   0.188   G          A         
 6 rs13~ 1     1.02e8 2.21e-13   285 0.890  2.34   0.320   A          G         
 7 rs60~ 1     2.45e8 2.37e- 4   286 0.857  0.620  0.169   T          A         
 8 rs19~ 1     1.87e8 1.57e-32   285 0.755 -1.90   0.160   C          G         
 9 rs12~ 1     1.72e8 4.63e- 5   285 0.894  1.29   0.317   G          T         
10 rs76~ 1     1.72e8 7.62e- 1   285 0.911  0.114  0.375   G          C         
# ... with 849,550 more rows
…
P-Z Plot: Plot to reveal issues with beta estimates, standard errors and P values. The plots compare P values reported in the association GWAS with P values calculated from Z-statistics (P.ztest) derived from the reported beta and standard error. A study with no issues should show perfect concordance. It will generate a plot per study, where concordance of all the study SNPs will be displayed.

SE-N Plot: Plot to reveal issues with trait transformations. A collection of studies with no issues will fall on a line.

If any of these QC raises some inconsistencies, please contact the correspondent study analyst.

5.2.7.1 EAF Plot

For this plot we are comparing the estimated allele frequencies to a reference set, so the first step is to get ourselves a reference set. For this example we will be using the ALL.wgs.phase1_release_v3.20101123 reference set. We will download it and load it into the client R session.

reference <- readr::read_tsv("https://homepages.uni-regensburg.de/~wit59712/easyqc/exomechip/ALL.wgs.phase1_release_v3.20101123.snps_indels_sv.sites.EUR_AF.txt.exm.tab.sexChr.DI.txt.GZ")
reference

# A tibble: 75,292 x 8
   ExmName    chrChr_Pos    Chr    Pos Rs          Ref   Alt     Freq
   <chr>      <chr>       <dbl>  <dbl> <chr>       <chr> <chr>  <dbl>
 1 exm2268640 chr1:762320     1 762320 rs75333668  C     T     0.0013
 2 exm47      chr1:865628     1 865628 rs41285790  G     A     0.01  
 3 exm55      chr1:865694     1 865694 rs9988179   C     T     0.0026
 4 exm67      chr1:871159     1 871159 .           G     A     0.0013
 5 exm106     chr1:874762     1 874762 rs139437968 C     T     0.0013
 6 exm158     chr1:878744     1 878744 .           G     C     0.0026
 7 exm241     chr1:880502     1 880502 rs74047418  C     T     0.0013
 8 exm2253575 chr1:881627     1 881627 rs2272757   G     A     0.63  
 9 exm269     chr1:881918     1 881918 rs35471880  G     A     0.06  
10 exm340     chr1:888659     1 888659 rs3748597   T     C     0.95  
# ... with 75,282 more rows
…
